icap.vcd
$scope module ICAP $end
$var wire 1 ! dut_write $end
$var wire 1 " dut_read $end
$var wire 1 # dut_done $end
$var wire 5 $ dut_addr $end
$var wire 32 % dut_write_data $end
$var wire 32 & dut_read_data $end
$var wire 1 ' icap_clk $end
$var wire 1 ( icap_rst $end
$var wire 4 ) dut_icap_clk_counter $end
$var wire 1 * dut_csib $end
$var wire 1 + dut_rdwrb $end
$var wire 32 , dut__i $end
$var wire 32 - dut__o $end
$var wire 4 . dut_count $end
$var wire 1 / dut_reset $end
$var wire 48 0 simulator_state $end
$var wire 64 1 simulator_next_state $end
$var wire 4 2 dut_count_next_value0 $end
$var wire 1 3 dut_count_next_value_ce0 $end
$var wire 32 4 dut_read_data_next_value1 $end
$var wire 1 5 dut_read_data_next_value_ce1 $end
$var wire 1 6 sys_clk $end
$enddefinitions $end
$dumpvars
$end
#0
0!
0"
0#
b00000 $
b00000000000000000000000000000000 %
b00000000000000000000000000000000 &
0'
0(
b0000 )
1*
0+
b00000000000000000000000000000000 ,
b00000000000000000000000000000000 -
b0000 .
0/
b01010111010000010100100101010100 0
b001100000011101001010111010000010100100101010100 1
b0000 2
03
b00000000000000000000000000000000 4
05
06
b11111111111111111111111111111111 ,
1/
#5
b00000000000000000000000000001111 %
13
b0001 )
16
0/
1!
b001100010011101001010011010110010100111001000011 1
b00100 $
#10
06
#15
b00100000000000000000000000000000 ,
b0010 )
b01010011010110010100111001000011 0
b0001 2
0*
16
#20
06
#25
b10101010100110010101010101100110 ,
b0001 .
b0011 )
b0010 2
16
#30
06
#35
b00100000000000000000000000000000 ,
b0010 .
b0100 )
b0011 2
16
#40
06
#45
b0011 .
b0101 )
b0000 2
b00110010001110100101011101010010010010010101010001000101 1
16
#50
06
#55
b00110000000000001000000000000001 ,
b0000 .
b0110 )
b0101011101010010010010010101010001000101 0
b0001 2
16
#60
06
#65
b00000000000000000000000000001111 ,
b0001 .
b0111 )
b0010 2
16
#70
06
#75
b00100000000000000000000000000000 ,
b0010 .
b1000 )
b0011 2
16
#80
06
#85
1'
b0011 .
b1001 )
b0000 2
b0011010000111010010001000100010101010011010110010100111001000011 1
16
#90
0'
06
#95
b00110000000000001000000000000001 ,
1'
b0000 .
b1010 )
b010001000100010101010011010110010100111001000011 0
b0001 2
16
#100
0'
06
#105
b00000000000000000000000000001101 ,
1'
b0001 .
b1011 )
b0010 2
16
#110
0'
06
#115
b00100000000000000000000000000000 ,
1'
b0010 .
b1100 )
b0011 2
16
#120
0'
06
#125
1'
b0011 .
b1101 )
b0000 2
b001101010011101001000100010011110100111001000101 1
16
#130
0'
06
#135
03
1'
b1110 )
1*
16
b11111111111111111111111111111111 ,
b0000 .
b01000100010011110100111001000101 0
1#
#140
0'
06
#145
0!
1'
1/
b1111 )
16
#150
0'
06
#155
1'
b0000 )
b01010111010000010100100101010100 0
b001100000011101001010111010000010100100101010100 1
0#
16
#160
0'
06
#165
b0001 )
16
#170
06
#175
b0010 )
16
#180
06
#185
b0011 )
16
#190
06
#195
b0100 )
16
#200
06
#205
b0101 )
16
#210
06
#215
b0110 )
16
#220
06
#225
b0111 )
16
#230
06
#235
b1000 )
16
#240
06
#245
b1001 )
1'
16
#250
0'
06
#255
b1010 )
1'
16
#260
0'
06
#265
b1011 )
1'
16
#270
0'
06
#275
b1100 )
1'
16
#280
0'
06
#285
b1101 )
1'
16
#290
0'
06
#295
b1110 )
1'
16
#300
0'
06
#305
13
1'
0/
b1111 )
1"
b001100010011101001010011010110010100111001000011 1
b10110 $
16
#310
0'
06
#315
b00100000000000000000000000000000 ,
1'
b0000 )
b01010011010110010100111001000011 0
b0001 2
0*
16
#320
0'
06
#325
b10101010100110010101010101100110 ,
b0001 .
b0001 )
b0010 2
16
#330
06
#335
b00100000000000000000000000000000 ,
b0010 .
b0010 )
b0011 2
16
#340
06
#345
b0011 .
b0011 )
b0000 2
b001100110011101001010010010001010100000101000100 1
16
#350
06
#355
b00101000000000101100000000000001 ,
b0000 .
b0100 )
b01010010010001010100000101000100 0
b0001 2
16
#360
06
#365
b00100000000000000000000000000000 ,
b0001 .
b0101 )
b0010 2
16
#370
06
#375
b0110 )
b0011 2
b0010 .
16
#380
06
#385
b0011 .
b0111 )
b0100 2
1+
1*
16
#390
06
#395
b0100 .
b1000 )
b0101 2
0*
16
#400
06
#405
1'
b0101 .
b1001 )
b0110 2
16
#410
0'
06
#415
1'
b0110 .
b1010 )
b0111 2
16
#420
0'
06
#425
1'
b0111 .
b1011 )
b0000 2
15
b0011010000111010010001000100010101010011010110010100111001000011 1
16
#430
0'
06
#435
1'
b1100 )
16
0+
b00110000000000001000000000000001 ,
b0000 .
b010001000100010101010011010110010100111001000011 0
05
b0001 2
#440
0'
06
#445
b00000000000000000000000000001101 ,
1'
b0001 .
b1101 )
b0010 2
16
#450
0'
06
#455
b00100000000000000000000000000000 ,
1'
b0010 .
b1110 )
b0011 2
16
#460
0'
06
#465
1'
b0011 .
b1111 )
b0000 2
b001101010011101001000100010011110100111001000101 1
16
#470
0'
06
#475
03
1'
b0000 )
1*
16
b11111111111111111111111111111111 ,
b0000 .
b01000100010011110100111001000101 0
1#
#480
0'
06
#485
b0001 )
0"
1/
16
#490
06
#495
b0010 )
b01010111010000010100100101010100 0
b001100000011101001010111010000010100100101010100 1
0#
16
0!
0"
0#
b00000 $
b00000000000000000000000000000000 %
b00000000000000000000000000000000 &
0'
0(
b0000 )
1*
0+
b00000000000000000000000000000000 ,
b00000000000000000000000000000000 -
b0000 .
0/
b01010111010000010100100101010100 0
b001100000011101001010111010000010100100101010100 1
b0000 2
03
b00000000000000000000000000000000 4
05
06
