sim.vcd
$scope module WS2812 $end
$var wire 1 ! led_signal $end
$var wire 4 " ws2812_port_adr $end
$var wire 32 # ws2812_port_dat_r $end
$var wire 30 $ ws2812_interface_adr $end
$var wire 32 % ws2812_interface_dat_w $end
$var wire 32 & ws2812_interface_dat_r $end
$var wire 4 ' ws2812_interface_sel $end
$var wire 1 ( ws2812_interface_cyc $end
$var wire 1 ) ws2812_interface_stb $end
$var wire 1 * ws2812_interface_ack $end
$var wire 1 + ws2812_interface_we $end
$var wire 1 , ws2812_wb_mem_adr_burst $end
$var wire 4 - ws2812_wb_mem_adr $end
$var wire 32 . ws2812_wb_mem_dat_r $end
$var wire 4 / ws2812_wb_mem_we $end
$var wire 32 0 ws2812_wb_mem_dat_w $end
$var wire 4 1 ws2812_led_count $end
$var wire 24 2 ws2812_led_data $end
$var wire 1 3 ws2812_xfer_start $end
$var wire 1 4 ws2812_xfer_done $end
$var wire 24 5 ws2812_xfer_data $end
$var wire 1 6 ws2812_trst_timer_wait $end
$var wire 1 7 ws2812_trst_timer_done $end
$var wire 15 8 ws2812_trst_timer_count $end
$var wire 1 9 ws2812_t0h_timer_wait $end
$var wire 1 : ws2812_t0h_timer_done $end
$var wire 5 ; ws2812_t0h_timer_count $end
$var wire 1 < ws2812_t0l_timer_wait $end
$var wire 1 = ws2812_t0l_timer_done $end
$var wire 6 > ws2812_t0l_timer_count $end
$var wire 1 ? ws2812_t1h_timer_wait $end
$var wire 1 @ ws2812_t1h_timer_done $end
$var wire 6 A ws2812_t1h_timer_count $end
$var wire 1 B ws2812_t1l_timer_wait $end
$var wire 1 C ws2812_t1l_timer_done $end
$var wire 6 D ws2812_t1l_timer_count $end
$var wire 5 E ws2812_xfer_bit $end
$var wire 1 F ws2812 $end
$var wire 72 G fsm0_state $end
$var wire 88 H fsm0_next_state $end
$var wire 4 I ws2812_led_count_fsm0_next_value0 $end
$var wire 1 J ws2812_led_count_fsm0_next_value_ce0 $end
$var wire 24 K ws2812_led_data_fsm0_next_value1 $end
$var wire 1 L ws2812_led_data_fsm0_next_value_ce1 $end
$var wire 32 M fsm1_state $end
$var wire 48 N fsm1_next_state $end
$var wire 5 O ws2812_xfer_bit_fsm1_next_value0 $end
$var wire 1 P ws2812_xfer_bit_fsm1_next_value_ce0 $end
$var wire 24 Q ws2812_xfer_data_fsm1_next_value1 $end
$var wire 1 R ws2812_xfer_data_fsm1_next_value_ce1 $end
$var wire 32 S mem_data_0 $end
$var wire 32 T mem_data_1 $end
$var wire 32 U mem_data_2 $end
$var wire 32 V mem_data_3 $end
$var wire 32 W mem_data_4 $end
$var wire 32 X mem_data_5 $end
$var wire 32 Y mem_data_6 $end
$var wire 32 Z mem_data_7 $end
$var wire 32 [ mem_data_8 $end
$var wire 4 \ adr_reg0 $end
$var wire 4 ] adr_reg1 $end
$var wire 1 ^ sys_clk $end
$enddefinitions $end
$dumpvars
$end
#0
0!
b0000 "
b00000000000000000000000000000000 #
b000000000000000000000000000000 $
b00000000000000000000000000000000 %
b00000000000000000000000000000000 &
b0000 '
0(
0)
0*
0+
0,
b0000 -
b00000000000000000000000000000000 .
b0000 /
b00000000000000000000000000000000 0
b0000 1
b000000000000000000000000 2
03
04
b000000000000000000000000 5
06
07
b110011010001001 8
09
0:
b11110 ;
0<
0=
b111110 >
0?
0@
b111100 A
0B
0C
b100000 D
b00000 E
0F
b010100100101001101010100 G
b0011000000111010010100100101001101010100 H
b0000 I
0J
b000000000000000000000000 K
0L
b01001001010001000100110001000101 M
b001100000011101001001001010001000100110001000101 N
b00000 O
0P
b000000000000000000000000 Q
0R
b00000000000100000000000000000000 S
b00000000001000000000000000000000 T
b00000000001100000000000000000000 U
b00000000010000000000000000000000 V
b00000000010100000000000000000000 W
b00000000011000000000000000000000 X
b00000000011100000000000000000000 Y
b00000000100000000000000000000000 Z
b00000000100100000000000000000000 [
b0000 \
b0000 ]
0^
b00000000000100000000000000000000 #
14
b00000000000100000000000000000000 &
16
b00000000000100000000000000000000 .
1J
#5
1^
b110011010001000 8
#10
0^
#15
b110011010000111 8
1^
#20
0^
#25
b110011010000110 8
1^
#30
0^
#35
b110011010000101 8
1^
#40
0^
#45
b110011010000100 8
1^
#50
0^
#55
b110011010000011 8
1^
#60
0^
#65
b110011010000010 8
1^
#70
0^
#75
b110011010000001 8
1^
#80
0^
#85
b110011010000000 8
1^
#90
0^
#95
b110011001111111 8
1^
#100
0^
#105
b110011001111110 8
1^
#110
0^
#115
b110011001111101 8
1^
#120
0^
#125
b110011001111100 8
1^
#130
0^
#135
b110011001111011 8
1^
#140
0^
#145
b110011001111010 8
1^
#150
0^
#155
b110011001111001 8
1^
#160
0^
#165
b110011001111000 8
1^
#170
0^
#175
b110011001110111 8
1^
#180
0^
#185
b110011001110110 8
1^
#190
0^
#195
b110011001110101 8
1^
#200
0^
#205
b110011001110100 8
1^
#210
0^
#215
b110011001110011 8
1^
#220
0^
#225
b110011001110010 8
1^
#230
0^
#235
b110011001110001 8
1^
#240
0^
#245
b110011001110000 8
1^
#250
0^
#255
b110011001101111 8
1^
#260
0^
#265
b110011001101110 8
1^
#270
0^
#275
b110011001101101 8
1^
#280
0^
#285
b110011001101100 8
1^
#290
0^
#295
b110011001101011 8
1^
#300
0^
#305
b110011001101010 8
1^
#310
0^
#315
b110011001101001 8
1^
#320
0^
#325
b110011001101000 8
1^
#330
0^
#335
b110011001100111 8
1^
#340
0^
#345
b110011001100110 8
1^
#350
0^
#355
b110011001100101 8
1^
#360
0^
#365
b110011001100100 8
1^
#370
0^
#375
b110011001100011 8
1^
#380
0^
#385
b110011001100010 8
1^
#390
0^
#395
b110011001100001 8
1^
#400
0^
#405
b110011001100000 8
1^
#410
0^
#415
b110011001011111 8
1^
#420
0^
#425
b110011001011110 8
1^
#430
0^
#435
b110011001011101 8
1^
#440
0^
#445
b110011001011100 8
1^
#450
0^
#455
b110011001011011 8
1^
#460
0^
#465
b110011001011010 8
1^
#470
0^
#475
b110011001011001 8
1^
#480
0^
#485
b110011001011000 8
1^
#490
0^
#495
b110011001010111 8
1^
#500
0^
#505
b110011001010110 8
1^
#510
0^
#515
b110011001010101 8
1^
#520
0^
#525
b110011001010100 8
1^
#530
0^
#535
b110011001010011 8
1^
#540
0^
#545
b110011001010010 8
1^
#550
0^
#555
b110011001010001 8
1^
#560
0^
#565
b110011001010000 8
1^
#570
0^
#575
b110011001001111 8
1^
#580
0^
#585
b110011001001110 8
1^
#590
0^
#595
b110011001001101 8
1^
#600
0^
#605
b110011001001100 8
1^
#610
0^
#615
b110011001001011 8
1^
#620
0^
#625
b110011001001010 8
1^
#630
0^
#635
b110011001001001 8
1^
#640
0^
#645
b110011001001000 8
1^
#650
0^
#655
b110011001000111 8
1^
#660
0^
#665
b110011001000110 8
1^
#670
0^
#675
b110011001000101 8
1^
#680
0^
#685
b110011001000100 8
1^
#690
0^
#695
b110011001000011 8
1^
#700
0^
#705
b110011001000010 8
1^
#710
0^
#715
b110011001000001 8
1^
#720
0^
#725
b110011001000000 8
1^
#730
0^
#735
b110011000111111 8
1^
#740
0^
#745
b110011000111110 8
1^
#750
0^
#755
b110011000111101 8
1^
#760
0^
#765
b110011000111100 8
1^
#770
0^
#775
b110011000111011 8
1^
#780
0^
#785
b110011000111010 8
1^
#790
0^
#795
b110011000111001 8
1^
#800
0^
#805
b110011000111000 8
1^
#810
0^
#815
b110011000110111 8
1^
#820
0^
#825
b110011000110110 8
1^
#830
0^
#835
b110011000110101 8
1^
#840
0^
#845
b110011000110100 8
1^
#850
0^
#855
b110011000110011 8
1^
#860
0^
#865
b110011000110010 8
1^
#870
0^
#875
b110011000110001 8
1^
#880
0^
#885
b110011000110000 8
1^
#890
0^
#895
b110011000101111 8
1^
#900
0^
#905
b110011000101110 8
1^
#910
0^
#915
b110011000101101 8
1^
#920
0^
#925
b110011000101100 8
1^
#930
0^
#935
b110011000101011 8
1^
#940
0^
#945
b110011000101010 8
1^
#950
0^
#955
b110011000101001 8
1^
#960
0^
#965
b110011000101000 8
1^
#970
0^
#975
b110011000100111 8
1^
#980
0^
#985
b110011000100110 8
1^
#990
0^
#995
b110011000100101 8
1^
#1000
0^
#1005
b110011000100100 8
1^
#1010
0^
#1015
b110011000100011 8
1^
#1020
0^
#1025
b110011000100010 8
1^
#1030
0^
#1035
b110011000100001 8
1^
#1040
0^
#1045
b110011000100000 8
1^
#1050
0^
#1055
b110011000011111 8
1^
#1060
0^
#1065
b110011000011110 8
1^
#1070
0^
#1075
b110011000011101 8
1^
#1080
0^
#1085
b110011000011100 8
1^
#1090
0^
#1095
b110011000011011 8
1^
#1100
0^
#1105
b110011000011010 8
1^
#1110
0^
#1115
b110011000011001 8
1^
#1120
0^
#1125
b110011000011000 8
1^
#1130
0^
#1135
b110011000010111 8
1^
#1140
0^
#1145
b110011000010110 8
1^
#1150
0^
#1155
b110011000010101 8
1^
#1160
0^
#1165
b110011000010100 8
1^
#1170
0^
#1175
b110011000010011 8
1^
#1180
0^
#1185
b110011000010010 8
1^
#1190
0^
#1195
b110011000010001 8
1^
#1200
0^
#1205
b110011000010000 8
1^
#1210
0^
#1215
b110011000001111 8
1^
#1220
0^
#1225
b110011000001110 8
1^
#1230
0^
#1235
b110011000001101 8
1^
#1240
0^
#1245
b110011000001100 8
1^
#1250
0^
#1255
b110011000001011 8
1^
#1260
0^
#1265
b110011000001010 8
1^
#1270
0^
#1275
b110011000001001 8
1^
#1280
0^
#1285
b110011000001000 8
1^
#1290
0^
#1295
b110011000000111 8
1^
#1300
0^
#1305
b110011000000110 8
1^
#1310
0^
#1315
b110011000000101 8
1^
#1320
0^
#1325
b110011000000100 8
1^
#1330
0^
#1335
b110011000000011 8
1^
#1340
0^
#1345
b110011000000010 8
1^
#1350
0^
#1355
b110011000000001 8
1^
#1360
0^
#1365
b110011000000000 8
1^
#1370
0^
#1375
b110010111111111 8
1^
#1380
0^
#1385
b110010111111110 8
1^
#1390
0^
#1395
b110010111111101 8
1^
#1400
0^
#1405
b110010111111100 8
1^
#1410
0^
#1415
b110010111111011 8
1^
#1420
0^
#1425
b110010111111010 8
1^
#1430
0^
#1435
b110010111111001 8
1^
#1440
0^
#1445
b110010111111000 8
1^
#1450
0^
#1455
b110010111110111 8
1^
#1460
0^
#1465
b110010111110110 8
1^
#1470
0^
#1475
b110010111110101 8
1^
#1480
0^
#1485
b110010111110100 8
1^
#1490
0^
#1495
b110010111110011 8
1^
#1500
0^
#1505
b110010111110010 8
1^
#1510
0^
#1515
b110010111110001 8
1^
#1520
0^
#1525
b110010111110000 8
1^
#1530
0^
#1535
b110010111101111 8
1^
#1540
0^
#1545
b110010111101110 8
1^
#1550
0^
#1555
b110010111101101 8
1^
#1560
0^
#1565
b110010111101100 8
1^
#1570
0^
#1575
b110010111101011 8
1^
#1580
0^
#1585
b110010111101010 8
1^
#1590
0^
#1595
b110010111101001 8
1^
#1600
0^
#1605
b110010111101000 8
1^
#1610
0^
#1615
b110010111100111 8
1^
#1620
0^
#1625
b110010111100110 8
1^
#1630
0^
#1635
b110010111100101 8
1^
#1640
0^
#1645
b110010111100100 8
1^
#1650
0^
#1655
b110010111100011 8
1^
#1660
0^
#1665
b110010111100010 8
1^
#1670
0^
#1675
b110010111100001 8
1^
#1680
0^
#1685
b110010111100000 8
1^
#1690
0^
#1695
b110010111011111 8
1^
#1700
0^
#1705
b110010111011110 8
1^
#1710
0^
#1715
b110010111011101 8
1^
#1720
0^
#1725
b110010111011100 8
1^
#1730
0^
#1735
b110010111011011 8
1^
#1740
0^
#1745
b110010111011010 8
1^
#1750
0^
#1755
b110010111011001 8
1^
#1760
0^
#1765
b110010111011000 8
1^
#1770
0^
#1775
b110010111010111 8
1^
#1780
0^
#1785
b110010111010110 8
1^
#1790
0^
#1795
b110010111010101 8
1^
#1800
0^
#1805
b110010111010100 8
1^
#1810
0^
#1815
b110010111010011 8
1^
#1820
0^
#1825
b110010111010010 8
1^
#1830
0^
#1835
b110010111010001 8
1^
#1840
0^
#1845
b110010111010000 8
1^
#1850
0^
#1855
b110010111001111 8
1^
#1860
0^
#1865
b110010111001110 8
1^
#1870
0^
#1875
b110010111001101 8
1^
#1880
0^
#1885
b110010111001100 8
1^
#1890
0^
#1895
b110010111001011 8
1^
#1900
0^
#1905
b110010111001010 8
1^
#1910
0^
#1915
b110010111001001 8
1^
#1920
0^
#1925
b110010111001000 8
1^
#1930
0^
#1935
b110010111000111 8
1^
#1940
0^
#1945
b110010111000110 8
1^
#1950
0^
#1955
b110010111000101 8
1^
#1960
0^
#1965
b110010111000100 8
1^
#1970
0^
#1975
b110010111000011 8
1^
#1980
0^
#1985
b110010111000010 8
1^
#1990
0^
#1995
b110010111000001 8
1^
#2000
0^
#2005
b110010111000000 8
1^
#2010
0^
#2015
b110010110111111 8
1^
#2020
0^
#2025
b110010110111110 8
1^
#2030
0^
#2035
b110010110111101 8
1^
#2040
0^
#2045
b110010110111100 8
1^
#2050
0^
#2055
b110010110111011 8
1^
#2060
0^
#2065
b110010110111010 8
1^
#2070
0^
#2075
b110010110111001 8
1^
#2080
0^
#2085
b110010110111000 8
1^
#2090
0^
#2095
b110010110110111 8
1^
#2100
0^
#2105
b110010110110110 8
1^
#2110
0^
#2115
b110010110110101 8
1^
#2120
0^
#2125
b110010110110100 8
1^
#2130
0^
#2135
b110010110110011 8
1^
#2140
0^
#2145
b110010110110010 8
1^
#2150
0^
#2155
b110010110110001 8
1^
#2160
0^
#2165
b110010110110000 8
1^
#2170
0^
#2175
b110010110101111 8
1^
#2180
0^
#2185
b110010110101110 8
1^
#2190
0^
#2195
b110010110101101 8
1^
#2200
0^
#2205
b110010110101100 8
1^
#2210
0^
#2215
b110010110101011 8
1^
#2220
0^
#2225
b110010110101010 8
1^
#2230
0^
#2235
b110010110101001 8
1^
#2240
0^
#2245
b110010110101000 8
1^
#2250
0^
#2255
b110010110100111 8
1^
#2260
0^
#2265
b110010110100110 8
1^
#2270
0^
#2275
b110010110100101 8
1^
#2280
0^
#2285
b110010110100100 8
1^
#2290
0^
#2295
b110010110100011 8
1^
#2300
0^
#2305
b110010110100010 8
1^
#2310
0^
#2315
b110010110100001 8
1^
#2320
0^
#2325
b110010110100000 8
1^
#2330
0^
#2335
b110010110011111 8
1^
#2340
0^
#2345
b110010110011110 8
1^
#2350
0^
#2355
b110010110011101 8
1^
#2360
0^
#2365
b110010110011100 8
1^
#2370
0^
#2375
b110010110011011 8
1^
#2380
0^
#2385
b110010110011010 8
1^
#2390
0^
#2395
b110010110011001 8
1^
#2400
0^
#2405
b110010110011000 8
1^
#2410
0^
#2415
b110010110010111 8
1^
#2420
0^
#2425
b110010110010110 8
1^
#2430
0^
#2435
b110010110010101 8
1^
#2440
0^
#2445
b110010110010100 8
1^
#2450
0^
#2455
b110010110010011 8
1^
#2460
0^
#2465
b110010110010010 8
1^
#2470
0^
#2475
b110010110010001 8
1^
#2480
0^
#2485
b110010110010000 8
1^
#2490
0^
#2495
b110010110001111 8
1^
#2500
0^
#2505
b110010110001110 8
1^
#2510
0^
#2515
b110010110001101 8
1^
#2520
0^
#2525
b110010110001100 8
1^
#2530
0^
#2535
b110010110001011 8
1^
#2540
0^
#2545
b110010110001010 8
1^
#2550
0^
#2555
b110010110001001 8
1^
#2560
0^
#2565
b110010110001000 8
1^
#2570
0^
#2575
b110010110000111 8
1^
#2580
0^
#2585
b110010110000110 8
1^
#2590
0^
#2595
b110010110000101 8
1^
#2600
0^
#2605
b110010110000100 8
1^
#2610
0^
#2615
b110010110000011 8
1^
#2620
0^
#2625
b110010110000010 8
1^
#2630
0^
#2635
b110010110000001 8
1^
#2640
0^
#2645
b110010110000000 8
1^
#2650
0^
#2655
b110010101111111 8
1^
#2660
0^
#2665
b110010101111110 8
1^
#2670
0^
#2675
b110010101111101 8
1^
#2680
0^
#2685
b110010101111100 8
1^
#2690
0^
#2695
b110010101111011 8
1^
#2700
0^
#2705
b110010101111010 8
1^
#2710
0^
#2715
b110010101111001 8
1^
#2720
0^
#2725
b110010101111000 8
1^
#2730
0^
#2735
b110010101110111 8
1^
#2740
0^
#2745
b110010101110110 8
1^
#2750
0^
#2755
b110010101110101 8
1^
#2760
0^
#2765
b110010101110100 8
1^
#2770
0^
#2775
b110010101110011 8
1^
#2780
0^
#2785
b110010101110010 8
1^
#2790
0^
#2795
b110010101110001 8
1^
#2800
0^
#2805
b110010101110000 8
1^
#2810
0^
#2815
b110010101101111 8
1^
#2820
0^
#2825
b110010101101110 8
1^
#2830
0^
#2835
b110010101101101 8
1^
#2840
0^
#2845
b110010101101100 8
1^
#2850
0^
#2855
b110010101101011 8
1^
#2860
0^
#2865
b110010101101010 8
1^
#2870
0^
#2875
b110010101101001 8
1^
#2880
0^
#2885
b110010101101000 8
1^
#2890
0^
#2895
b110010101100111 8
1^
#2900
0^
#2905
b110010101100110 8
1^
#2910
0^
#2915
b110010101100101 8
1^
#2920
0^
#2925
b110010101100100 8
1^
#2930
0^
#2935
b110010101100011 8
1^
#2940
0^
#2945
b110010101100010 8
1^
#2950
0^
#2955
b110010101100001 8
1^
#2960
0^
#2965
b110010101100000 8
1^
#2970
0^
#2975
b110010101011111 8
1^
#2980
0^
#2985
b110010101011110 8
1^
#2990
0^
#2995
b110010101011101 8
1^
#3000
0^
#3005
b110010101011100 8
1^
#3010
0^
#3015
b110010101011011 8
1^
#3020
0^
#3025
b110010101011010 8
1^
#3030
0^
#3035
b110010101011001 8
1^
#3040
0^
#3045
b110010101011000 8
1^
#3050
0^
#3055
b110010101010111 8
1^
#3060
0^
#3065
b110010101010110 8
1^
#3070
0^
#3075
b110010101010101 8
1^
#3080
0^
#3085
b110010101010100 8
1^
#3090
0^
#3095
b110010101010011 8
1^
#3100
0^
#3105
b110010101010010 8
1^
#3110
0^
#3115
b110010101010001 8
1^
#3120
0^
#3125
b110010101010000 8
1^
#3130
0^
#3135
b110010101001111 8
1^
#3140
0^
#3145
b110010101001110 8
1^
#3150
0^
#3155
b110010101001101 8
1^
#3160
0^
#3165
b110010101001100 8
1^
#3170
0^
#3175
b110010101001011 8
1^
#3180
0^
#3185
b110010101001010 8
1^
#3190
0^
#3195
b110010101001001 8
1^
#3200
0^
#3205
b110010101001000 8
1^
#3210
0^
#3215
b110010101000111 8
1^
#3220
0^
#3225
b110010101000110 8
1^
#3230
0^
#3235
b110010101000101 8
1^
#3240
0^
#3245
b110010101000100 8
1^
#3250
0^
#3255
b110010101000011 8
1^
#3260
0^
#3265
b110010101000010 8
1^
#3270
0^
#3275
b110010101000001 8
1^
#3280
0^
#3285
b110010101000000 8
1^
#3290
0^
#3295
b110010100111111 8
1^
#3300
0^
#3305
b110010100111110 8
1^
#3310
0^
#3315
b110010100111101 8
1^
#3320
0^
#3325
b110010100111100 8
1^
#3330
0^
#3335
b110010100111011 8
1^
#3340
0^
#3345
b110010100111010 8
1^
#3350
0^
#3355
b110010100111001 8
1^
#3360
0^
#3365
b110010100111000 8
1^
#3370
0^
#3375
b110010100110111 8
1^
#3380
0^
#3385
b110010100110110 8
1^
#3390
0^
#3395
b110010100110101 8
1^
#3400
0^
#3405
b110010100110100 8
1^
#3410
0^
#3415
b110010100110011 8
1^
#3420
0^
#3425
b110010100110010 8
1^
#3430
0^
#3435
b110010100110001 8
1^
#3440
0^
#3445
b110010100110000 8
1^
#3450
0^
#3455
b110010100101111 8
1^
#3460
0^
#3465
b110010100101110 8
1^
#3470
0^
#3475
b110010100101101 8
1^
#3480
0^
#3485
b110010100101100 8
1^
#3490
0^
#3495
b110010100101011 8
1^
#3500
0^
#3505
b110010100101010 8
1^
#3510
0^
#3515
b110010100101001 8
1^
#3520
0^
#3525
b110010100101000 8
1^
#3530
0^
#3535
b110010100100111 8
1^
#3540
0^
#3545
b110010100100110 8
1^
#3550
0^
#3555
b110010100100101 8
1^
#3560
0^
#3565
b110010100100100 8
1^
#3570
0^
#3575
b110010100100011 8
1^
#3580
0^
#3585
b110010100100010 8
1^
#3590
0^
#3595
b110010100100001 8
1^
#3600
0^
#3605
b110010100100000 8
1^
#3610
0^
#3615
b110010100011111 8
1^
#3620
0^
#3625
b110010100011110 8
1^
#3630
0^
#3635
b110010100011101 8
1^
#3640
0^
#3645
b110010100011100 8
1^
#3650
0^
#3655
b110010100011011 8
1^
#3660
0^
#3665
b110010100011010 8
1^
#3670
0^
#3675
b110010100011001 8
1^
#3680
0^
#3685
b110010100011000 8
1^
#3690
0^
#3695
b110010100010111 8
1^
#3700
0^
#3705
b110010100010110 8
1^
#3710
0^
#3715
b110010100010101 8
1^
#3720
0^
#3725
b110010100010100 8
1^
#3730
0^
#3735
b110010100010011 8
1^
#3740
0^
#3745
b110010100010010 8
1^
#3750
0^
#3755
b110010100010001 8
1^
#3760
0^
#3765
b110010100010000 8
1^
#3770
0^
#3775
b110010100001111 8
1^
#3780
0^
#3785
b110010100001110 8
1^
#3790
0^
#3795
b110010100001101 8
1^
#3800
0^
#3805
b110010100001100 8
1^
#3810
0^
#3815
b110010100001011 8
1^
#3820
0^
#3825
b110010100001010 8
1^
#3830
0^
#3835
b110010100001001 8
1^
#3840
0^
#3845
b110010100001000 8
1^
#3850
0^
#3855
b110010100000111 8
1^
#3860
0^
#3865
b110010100000110 8
1^
#3870
0^
#3875
b110010100000101 8
1^
#3880
0^
#3885
b110010100000100 8
1^
#3890
0^
#3895
b110010100000011 8
1^
#3900
0^
#3905
b110010100000010 8
1^
#3910
0^
#3915
b110010100000001 8
1^
#3920
0^
#3925
b110010100000000 8
1^
#3930
0^
#3935
b110010011111111 8
1^
#3940
0^
#3945
b110010011111110 8
1^
#3950
0^
#3955
b110010011111101 8
1^
#3960
0^
#3965
b110010011111100 8
1^
#3970
0^
#3975
b110010011111011 8
1^
#3980
0^
#3985
b110010011111010 8
1^
#3990
0^
#3995
b110010011111001 8
1^
#4000
0^
#4005
b110010011111000 8
1^
#4010
0^
#4015
b110010011110111 8
1^
#4020
0^
#4025
b110010011110110 8
1^
#4030
0^
#4035
b110010011110101 8
1^
#4040
0^
#4045
b110010011110100 8
1^
#4050
0^
#4055
b110010011110011 8
1^
#4060
0^
#4065
b110010011110010 8
1^
#4070
0^
#4075
b110010011110001 8
1^
#4080
0^
#4085
b110010011110000 8
1^
#4090
0^
#4095
b110010011101111 8
1^
#4100
0^
#4105
b110010011101110 8
1^
#4110
0^
#4115
b110010011101101 8
1^
#4120
0^
#4125
b110010011101100 8
1^
#4130
0^
#4135
b110010011101011 8
1^
#4140
0^
#4145
b110010011101010 8
1^
#4150
0^
#4155
b110010011101001 8
1^
#4160
0^
#4165
b110010011101000 8
1^
#4170
0^
#4175
b110010011100111 8
1^
#4180
0^
#4185
b110010011100110 8
1^
#4190
0^
#4195
b110010011100101 8
1^
#4200
0^
#4205
b110010011100100 8
1^
#4210
0^
#4215
b110010011100011 8
1^
#4220
0^
#4225
b110010011100010 8
1^
#4230
0^
#4235
b110010011100001 8
1^
#4240
0^
#4245
b110010011100000 8
1^
#4250
0^
#4255
b110010011011111 8
1^
#4260
0^
#4265
b110010011011110 8
1^
#4270
0^
#4275
b110010011011101 8
1^
#4280
0^
#4285
b110010011011100 8
1^
#4290
0^
#4295
b110010011011011 8
1^
#4300
0^
#4305
b110010011011010 8
1^
#4310
0^
#4315
b110010011011001 8
1^
#4320
0^
#4325
b110010011011000 8
1^
#4330
0^
#4335
b110010011010111 8
1^
#4340
0^
#4345
b110010011010110 8
1^
#4350
0^
#4355
b110010011010101 8
1^
#4360
0^
#4365
b110010011010100 8
1^
#4370
0^
#4375
b110010011010011 8
1^
#4380
0^
#4385
b110010011010010 8
1^
#4390
0^
#4395
b110010011010001 8
1^
#4400
0^
#4405
b110010011010000 8
1^
#4410
0^
#4415
b110010011001111 8
1^
#4420
0^
#4425
b110010011001110 8
1^
#4430
0^
#4435
b110010011001101 8
1^
#4440
0^
#4445
b110010011001100 8
1^
#4450
0^
#4455
b110010011001011 8
1^
#4460
0^
#4465
b110010011001010 8
1^
#4470
0^
#4475
b110010011001001 8
1^
#4480
0^
#4485
b110010011001000 8
1^
#4490
0^
#4495
b110010011000111 8
1^
#4500
0^
#4505
b110010011000110 8
1^
#4510
0^
#4515
b110010011000101 8
1^
#4520
0^
#4525
b110010011000100 8
1^
#4530
0^
#4535
b110010011000011 8
1^
#4540
0^
#4545
b110010011000010 8
1^
#4550
0^
#4555
b110010011000001 8
1^
#4560
0^
#4565
b110010011000000 8
1^
#4570
0^
#4575
b110010010111111 8
1^
#4580
0^
#4585
b110010010111110 8
1^
#4590
0^
#4595
b110010010111101 8
1^
#4600
0^
#4605
b110010010111100 8
1^
#4610
0^
#4615
b110010010111011 8
1^
#4620
0^
#4625
b110010010111010 8
1^
#4630
0^
#4635
b110010010111001 8
1^
#4640
0^
#4645
b110010010111000 8
1^
#4650
0^
#4655
b110010010110111 8
1^
#4660
0^
#4665
b110010010110110 8
1^
#4670
0^
#4675
b110010010110101 8
1^
#4680
0^
#4685
b110010010110100 8
1^
#4690
0^
#4695
b110010010110011 8
1^
#4700
0^
#4705
b110010010110010 8
1^
#4710
0^
#4715
b110010010110001 8
1^
#4720
0^
#4725
b110010010110000 8
1^
#4730
0^
#4735
b110010010101111 8
1^
#4740
0^
#4745
b110010010101110 8
1^
#4750
0^
#4755
b110010010101101 8
1^
#4760
0^
#4765
b110010010101100 8
1^
#4770
0^
#4775
b110010010101011 8
1^
#4780
0^
#4785
b110010010101010 8
1^
#4790
0^
#4795
b110010010101001 8
1^
#4800
0^
#4805
b110010010101000 8
1^
#4810
0^
#4815
b110010010100111 8
1^
#4820
0^
#4825
b110010010100110 8
1^
#4830
0^
#4835
b110010010100101 8
1^
#4840
0^
#4845
b110010010100100 8
1^
#4850
0^
#4855
b110010010100011 8
1^
#4860
0^
#4865
b110010010100010 8
1^
#4870
0^
#4875
b110010010100001 8
1^
#4880
0^
#4885
b110010010100000 8
1^
#4890
0^
#4895
b110010010011111 8
1^
#4900
0^
#4905
b110010010011110 8
1^
#4910
0^
#4915
b110010010011101 8
1^
#4920
0^
#4925
b110010010011100 8
1^
#4930
0^
#4935
b110010010011011 8
1^
#4940
0^
#4945
b110010010011010 8
1^
#4950
0^
#4955
b110010010011001 8
1^
#4960
0^
#4965
b110010010011000 8
1^
#4970
0^
#4975
b110010010010111 8
1^
#4980
0^
#4985
b110010010010110 8
1^
#4990
0^
#4995
b110010010010101 8
1^
#5000
0^
#5005
b110010010010100 8
1^
#5010
0^
#5015
b110010010010011 8
1^
#5020
0^
#5025
b110010010010010 8
1^
#5030
0^
#5035
b110010010010001 8
1^
#5040
0^
#5045
b110010010010000 8
1^
#5050
0^
#5055
b110010010001111 8
1^
#5060
0^
#5065
b110010010001110 8
1^
#5070
0^
#5075
b110010010001101 8
1^
#5080
0^
#5085
b110010010001100 8
1^
#5090
0^
#5095
b110010010001011 8
1^
#5100
0^
#5105
b110010010001010 8
1^
#5110
0^
#5115
b110010010001001 8
1^
#5120
0^
#5125
b110010010001000 8
1^
#5130
0^
#5135
b110010010000111 8
1^
#5140
0^
#5145
b110010010000110 8
1^
#5150
0^
#5155
b110010010000101 8
1^
#5160
0^
#5165
b110010010000100 8
1^
#5170
0^
#5175
b110010010000011 8
1^
#5180
0^
#5185
b110010010000010 8
1^
#5190
0^
#5195
b110010010000001 8
1^
#5200
0^
#5205
b110010010000000 8
1^
#5210
0^
#5215
b110010001111111 8
1^
#5220
0^
#5225
b110010001111110 8
1^
#5230
0^
#5235
b110010001111101 8
1^
#5240
0^
#5245
b110010001111100 8
1^
#5250
0^
#5255
b110010001111011 8
1^
#5260
0^
#5265
b110010001111010 8
1^
#5270
0^
#5275
b110010001111001 8
1^
#5280
0^
#5285
b110010001111000 8
1^
#5290
0^
#5295
b110010001110111 8
1^
#5300
0^
#5305
b110010001110110 8
1^
#5310
0^
#5315
b110010001110101 8
1^
#5320
0^
#5325
b110010001110100 8
1^
#5330
0^
#5335
b110010001110011 8
1^
#5340
0^
#5345
b110010001110010 8
1^
#5350
0^
#5355
b110010001110001 8
1^
#5360
0^
#5365
b110010001110000 8
1^
#5370
0^
#5375
b110010001101111 8
1^
#5380
0^
#5385
b110010001101110 8
1^
#5390
0^
#5395
b110010001101101 8
1^
#5400
0^
#5405
b110010001101100 8
1^
#5410
0^
#5415
b110010001101011 8
1^
#5420
0^
#5425
b110010001101010 8
1^
#5430
0^
#5435
b110010001101001 8
1^
#5440
0^
#5445
b110010001101000 8
1^
#5450
0^
#5455
b110010001100111 8
1^
#5460
0^
#5465
b110010001100110 8
1^
#5470
0^
#5475
b110010001100101 8
1^
#5480
0^
#5485
b110010001100100 8
1^
#5490
0^
#5495
b110010001100011 8
1^
#5500
0^
#5505
b110010001100010 8
1^
#5510
0^
#5515
b110010001100001 8
1^
#5520
0^
#5525
b110010001100000 8
1^
#5530
0^
#5535
b110010001011111 8
1^
#5540
0^
#5545
b110010001011110 8
1^
#5550
0^
#5555
b110010001011101 8
1^
#5560
0^
#5565
b110010001011100 8
1^
#5570
0^
#5575
b110010001011011 8
1^
#5580
0^
#5585
b110010001011010 8
1^
#5590
0^
#5595
b110010001011001 8
1^
#5600
0^
#5605
b110010001011000 8
1^
#5610
0^
#5615
b110010001010111 8
1^
#5620
0^
#5625
b110010001010110 8
1^
#5630
0^
#5635
b110010001010101 8
1^
#5640
0^
#5645
b110010001010100 8
1^
#5650
0^
#5655
b110010001010011 8
1^
#5660
0^
#5665
b110010001010010 8
1^
#5670
0^
#5675
b110010001010001 8
1^
#5680
0^
#5685
b110010001010000 8
1^
#5690
0^
#5695
b110010001001111 8
1^
#5700
0^
#5705
b110010001001110 8
1^
#5710
0^
#5715
b110010001001101 8
1^
#5720
0^
#5725
b110010001001100 8
1^
